wave.vcd
$date
	Mon Mar  2 19:37:28 2026
$end
$version
	QuestaSim Version 2019.2
$end
$timescale
	1ps
$end

$scope module tb_pipeline_top $end
$var reg 1 ! clk $end
$var reg 1 " reset $end

$scope module dut $end

$scope module core $end
$var reg 1 # ZeroE $end
$var reg 1 $ StallF $end
$var reg 1 % StallD $end
$var reg 1 & FlushE $end
$var reg 1 ' FlushD $end
$var reg 1 ( PCSrcE $end
$var reg 2 ) ForwardAE [1:0] $end
$var reg 2 * ForwardBE [1:0] $end
$var reg 1 + RegWriteD $end
$var reg 1 , RegWriteE $end
$var reg 1 - RegWriteM $end
$var reg 1 . RegWriteW $end
$var reg 1 / MemWriteD $end
$var reg 1 0 MemWriteE $end
$var reg 1 1 MemWriteM $end
$var reg 1 2 JumpD $end
$var reg 1 3 BranchD $end
$var reg 1 4 JumpE $end
$var reg 1 5 BranchE $end
$var reg 1 6 ALUSrcD $end
$var reg 1 7 ALUSrcE $end
$var reg 2 8 ResultSrcD [1:0] $end
$var reg 2 9 ResultSrcE [1:0] $end
$var reg 2 : ResultSrcM [1:0] $end
$var reg 2 ; ResultSrcW [1:0] $end
$var reg 2 < ALUOpD [1:0] $end
$var reg 2 = ALUOpE [1:0] $end
$var reg 2 > ImmSrcD [1:0] $end
$var reg 32 ? SrcAE [31:0] $end
$var reg 32 @ SrcBE [31:0] $end
$var reg 32 A SrcB [31:0] $end
$var reg 32 B ALUResultE [31:0] $end
$var reg 32 C ALUResultM [31:0] $end
$var reg 32 D ALUResultW [31:0] $end
$var reg 32 E ReadDataM [31:0] $end
$var reg 32 F ReadDataW [31:0] $end
$var reg 32 G PCTargetE [31:0] $end
$var reg 32 H PCNext [31:0] $end
$var reg 32 I ResultW [31:0] $end
$var reg 32 J RD1D [31:0] $end
$var reg 32 K RD2D [31:0] $end
$var reg 32 L RD1E [31:0] $end
$var reg 32 M RD2E [31:0] $end
$var reg 32 N RD2M [31:0] $end
$var reg 32 O ImmExtendD [31:0] $end
$var reg 32 P ImmExtendE [31:0] $end
$var reg 32 Q InstrF [31:0] $end
$var reg 32 R InstrD [31:0] $end
$var reg 32 S PCF [31:0] $end
$var reg 32 T PCD [31:0] $end
$var reg 32 U PCE [31:0] $end
$var reg 32 V PCPlus4F [31:0] $end
$var reg 32 W PCPlus4D [31:0] $end
$var reg 32 X PCPlus4E [31:0] $end
$var reg 32 Y PCPlus4M [31:0] $end
$var reg 32 Z PCPlus4W [31:0] $end
$var reg 5 [ rs1E [4:0] $end
$var reg 5 \ rs2E [4:0] $end
$var reg 5 ] rdE [4:0] $end
$var reg 5 ^ rdM [4:0] $end
$var reg 5 _ rdW [4:0] $end
$var reg 3 ` funct3E [2:0] $end
$var reg 1 a funct7b5E $end
$var reg 3 b ALUControlE [2:0] $end
$var reg 32 c ForwardFromMEM [31:0] $end
$var reg 32 d ForwardFromWB [31:0] $end

$scope module fwd $end
$var reg 2 e ForwardAE [1:0] $end
$var reg 2 f ForwardBE [1:0] $end
$upscope $end

$scope module PCPlus4Adder $end
$var reg 32 g Sum [31:0] $end
$upscope $end

$scope module PCTargetAdder $end
$var reg 32 h Sum [31:0] $end
$upscope $end

$scope module PCMux $end
$var reg 32 i y [31:0] $end
$upscope $end

$scope module pc $end
$var reg 32 j PC [31:0] $end
$upscope $end

$scope module imem $end
$var wire 1 k A [31] $end
$var wire 1 l A [30] $end
$var wire 1 m A [29] $end
$var wire 1 n A [28] $end
$var wire 1 o A [27] $end
$var wire 1 p A [26] $end
$var wire 1 q A [25] $end
$var wire 1 r A [24] $end
$var wire 1 s A [23] $end
$var wire 1 t A [22] $end
$var wire 1 u A [21] $end
$var wire 1 v A [20] $end
$var wire 1 w A [19] $end
$var wire 1 x A [18] $end
$var wire 1 y A [17] $end
$var wire 1 z A [16] $end
$var wire 1 { A [15] $end
$var wire 1 | A [14] $end
$var wire 1 } A [13] $end
$var wire 1 ~ A [12] $end
$var wire 1 !! A [11] $end
$var wire 1 "! A [10] $end
$var wire 1 #! A [9] $end
$var wire 1 $! A [8] $end
$var wire 1 %! A [7] $end
$var wire 1 &! A [6] $end
$var wire 1 '! A [5] $end
$var wire 1 (! A [4] $end
$var wire 1 )! A [3] $end
$var wire 1 *! A [2] $end
$var wire 1 +! A [1] $end
$var wire 1 ,! A [0] $end
$var reg 32 -! RD [31:0] $end
$upscope $end

$scope module ifid $end
$var reg 32 .! InstrD [31:0] $end
$var reg 32 /! PCD [31:0] $end
$var reg 32 0! PCPlus4D [31:0] $end
$upscope $end

$scope module rf $end
$var reg 32 1! rd1 [31:0] $end
$var reg 32 2! rd2 [31:0] $end
$var integer 32 3! i $end
$upscope $end

$scope module extend $end
$var reg 32 4! ImmExtend [31:0] $end
$upscope $end

$scope module ctrl $end
$var reg 1 5! Branch $end
$var reg 1 6! Jump $end
$var reg 2 7! ResultSrc [1:0] $end
$var reg 1 8! MemWrite $end
$var reg 2 9! ImmSrc [1:0] $end
$var reg 1 :! RegWrite $end
$var reg 1 ;! ALUSrc $end
$var reg 2 <! ALUOp [1:0] $end

$scope module md $end
$var reg 1 =! RegWrite $end
$var reg 2 >! ResultSrc [1:0] $end
$var reg 2 ?! ALUOp [1:0] $end
$var reg 2 @! ImmSrc [1:0] $end
$var reg 1 A! ALUSrc $end
$var reg 1 B! MemWrite $end
$var reg 1 C! Jump $end
$var reg 1 D! Branch $end
$var reg 11 E! controls [10:0] $end
$upscope $end
$upscope $end

$scope module hz $end
$var reg 1 F! StallF $end
$var reg 1 G! StallD $end
$var reg 1 H! FlushE $end
$var reg 1 I! FlushD $end
$var reg 1 J! lwStall $end
$upscope $end

$scope module idex $end
$var reg 32 K! rd1E [31:0] $end
$var reg 32 L! rd2E [31:0] $end
$var reg 32 M! PCE [31:0] $end
$var reg 5 N! rs1E [4:0] $end
$var reg 5 O! rs2E [4:0] $end
$var reg 5 P! rdE [4:0] $end
$var reg 32 Q! ImmExtendE [31:0] $end
$var reg 32 R! PCPlus4E [31:0] $end
$var reg 1 S! RegWriteE $end
$var reg 2 T! ResultSrcE [1:0] $end
$var reg 1 U! MemWriteE $end
$var reg 1 V! JumpE $end
$var reg 1 W! BranchE $end
$var reg 1 X! ALUSrcE $end
$var reg 2 Y! ALUOpE [1:0] $end
$var reg 3 Z! funct3E [2:0] $end
$var reg 1 [! funct7b5E $end
$upscope $end

$scope module alu_dec $end
$var reg 3 \! ALUControl [2:0] $end
$upscope $end

$scope module muxA $end
$var reg 32 ]! y [31:0] $end
$upscope $end

$scope module muxB $end
$var reg 32 ^! y [31:0] $end
$upscope $end

$scope module muxImm $end
$var reg 32 _! y [31:0] $end
$upscope $end

$scope module alu $end
$var reg 32 `! ALUResult [31:0] $end
$var reg 1 a! Zero $end
$upscope $end

$scope module exmem $end
$var reg 32 b! ALUResultM [31:0] $end
$var reg 32 c! RD2M [31:0] $end
$var reg 1 d! RegWriteM $end
$var reg 1 e! MemWriteM $end
$var reg 2 f! ResultSrcM [1:0] $end
$var reg 5 g! rdM [4:0] $end
$var reg 32 h! PCPlus4M [31:0] $end
$upscope $end

$scope module dmem $end
$var reg 32 i! ReadData [31:0] $end
$upscope $end

$scope module memwb $end
$var reg 32 j! ALUResultW [31:0] $end
$var reg 32 k! ReadDataW [31:0] $end
$var reg 32 l! PCPlus4W [31:0] $end
$var reg 5 m! rdW [4:0] $end
$var reg 1 n! RegWriteW $end
$var reg 2 o! ResultSrcW [1:0] $end
$upscope $end

$scope module wb_mux $end
$var reg 32 p! y [31:0] $end
$upscope $end

$scope module sva_inst $end
$upscope $end
$upscope $end
$upscope $end
$upscope $end
$enddefinitions $end
#0
$dumpvars
0!
1"
1#
x$
x%
x&
x'
x(
b0 )
b0 *
0+
x,
x-
x.
0/
x0
x1
02
03
x4
x5
06
x7
b0 8
bx 9
bx :
bx ;
b0 <
bx =
b0 >
bx ?
bx @
bx A
b0 B
bx C
bx D
bx E
bx F
bx G
bx H
bx I
bx J
bx K
bx L
bx M
bx N
bx O
bx P
b100001111000110010010100010011 Q
bx R
b0 S
bx T
bx U
b100 V
bx W
bx X
bx Y
bx Z
bx [
bx \
bx ]
bx ^
bx _
bx `
xa
bx b
b0 e
b0 f
b100 g
bx h
bx i
b0 j
b100001111000110010010100010011 -!
bx .!
bx /!
bx 0!
bx 1!
bx 2!
bx 4!
05!
06!
b0 7!
08!
b0 9!
0:!
0;!
b0 <!
0=!
b0 >!
b0 ?!
b0 @!
0A!
0B!
0C!
0D!
b0 E!
xF!
xG!
xH!
xI!
xJ!
bx K!
bx L!
bx M!
bx N!
bx O!
bx P!
bx Q!
bx R!
xS!
bx T!
xU!
xV!
xW!
xX!
bx Y!
bx Z!
x[!
bx \!
bx c
bx d
bx ]!
bx ^!
bx _!
b0 `!
1a!
bx b!
bx c!
xd!
xe!
bx f!
bx g!
bx h!
bx i!
bx j!
bx k!
bx l!
bx m!
xn!
bx o!
bx p!
b100000 3!
0,!
0+!
0*!
0)!
0(!
0'!
0&!
0%!
0$!
0#!
0"!
0!!
0~
0}
0|
0{
0z
0y
0x
0w
0v
0u
0t
0s
0r
0q
0p
0o
0n
0m
0l
0k
$end
#5000
1!
b0 3!
b1 3!
b10 3!
b11 3!
b100 3!
b101 3!
b110 3!
b111 3!
b1000 3!
b1001 3!
b1010 3!
b1011 3!
b1100 3!
b1101 3!
b1110 3!
b1111 3!
b10000 3!
b10001 3!
b10010 3!
b10011 3!
b10100 3!
b10101 3!
b10110 3!
b10111 3!
b11000 3!
b11001 3!
b11010 3!
b11011 3!
b11100 3!
b11101 3!
b11110 3!
b11111 3!
b100000 3!
b0 .!
b0 /!
b0 0!
b0 K!
b0 L!
b0 M!
b0 N!
b0 O!
b0 P!
b0 Q!
b0 R!
0S!
b0 T!
0U!
0V!
0W!
0X!
b0 Y!
b0 Z!
0[!
b0 b!
b0 c!
b0 g!
b0 h!
0d!
0e!
b0 f!
b0 j!
b0 k!
b0 l!
b0 m!
0n!
b0 o!
b0 ;
0.
b0 _
b0 Z
b0 F
b0 D
b0 :
01
0-
b0 Y
b0 ^
b0 N
b0 C
0a
b0 `
b0 =
07
05
04
00
b0 9
0,
b0 X
b0 P
b0 ]
b0 \
b0 [
b0 U
b0 M
b0 L
b0 W
b0 T
b0 R
b0 ]!
b0 ^!
b0 h
0J!
0(
b0 c
b0 i!
b0 1!
b0 2!
b0 p!
b0 I
b0 K
b0 J
b0 E
0I!
b100 i
0F!
0G!
0H!
b0 G
b0 A
b0 ?
b0 _!
0&
0%
0$
b100 H
0'
b0 d
b0 @
b0 4!
b0 \!
b0 b
b0 O
#10000
0!
#15000
1!
b0 3!
b1 3!
b10 3!
b11 3!
b100 3!
b101 3!
b110 3!
b111 3!
b1000 3!
b1001 3!
b1010 3!
b1011 3!
b1100 3!
b1101 3!
b1110 3!
b1111 3!
b10000 3!
b10001 3!
b10010 3!
b10011 3!
b10100 3!
b10101 3!
b10110 3!
b10111 3!
b11000 3!
b11001 3!
b11010 3!
b11011 3!
b11100 3!
b11101 3!
b11110 3!
b11111 3!
b100000 3!
#20000
0!
#25000
1!
#30000
0!
#35000
1!
#40000
0!
#45000
1!
0"
#50000
0!
#55000
1!
b100 j
b100001111000110010010100010011 .!
b100 0!
b100 W
b100001111000110010010100010011 R
b100 S
b1000 g
1*!
b1000000000010110000011010110011 -!
b1000 V
b1000 i
b1000000000010110000011010110011 Q
b1000 H
b1000011110 4!
b10010000110 E!
b11 ?!
1A!
1=!
b1000011110 O
1:!
1;!
b11 <!
b11 <
16
1+
#60000
0!
#65000
1!
b1000 j
b1000000000010110000011010110011 .!
b100 /!
b1000 0!
b110 N!
b11110 O!
b1010 P!
b1000011110 Q!
b100 R!
1S!
1X!
b11 Y!
b10 Z!
b10 `
b11 =
17
1,
b100 X
b1000011110 P
b1010 ]
b11110 \
b110 [
b1000 W
b100 T
b1000000000010110000011010110011 R
b1000 S
b1100 g
b1000011110 h
b1000011110 _!
0*!
1)!
b1001000010010011110000011 -!
b1000011110 @
b1000011110 G
b1100 V
b1100 i
b1001000010010011110000011 Q
b1100 H
b1000011110 `!
0a!
b10000000000 4!
b1xx00000100 E!
b100 \!
b100 b
b10 ?!
0A!
bx @!
b10000000000 O
0#
b1000011110 B
bx 9!
0;!
b10 <!
b10 <
06
bx >
b0 4!
b1 `!
b1 B
b0 O
#70000
0!
#75000
1!
b1100 j
b1001000010010011110000011 .!
b1000 /!
b1100 0!
b100 M!
b10110 N!
b0 O!
b1101 P!
b0 Q!
b1000 R!
0X!
b10 Y!
b0 Z!
1[!
b1 b!
b1010 g!
b100 h!
1d!
1-
b100 Y
b1010 ^
b1 C
1a
b0 `
b10 =
07
b1000 X
b0 P
b1101 ]
b0 \
b10110 [
b100 U
b1100 W
b1000 T
b1001000010010011110000011 R
b1100 S
b10000 g
b100 h
b0 _!
b1 c
1*!
b1000001001110100000011010110011 -!
b0 @
b100 G
b10000 V
b10000 i
b1000001001110100000011010110011 Q
b10000 H
b0 `!
1a!
b10010010000 E!
b1 \!
b1 b
b0 ?!
b1 >!
1A!
b0 @!
1#
b0 B
b0 9!
1;!
b1 7!
b0 <!
b0 <
b1 8
16
b0 >
b10010 4!
b10010 O
#80000
0!
#85000
1!
b10000 j
b1000001001110100000011010110011 .!
b1100 /!
b10000 0!
b1000 M!
b10 N!
b10010 O!
b1111 P!
b10010 Q!
b1100 R!
b1 T!
1X!
b0 Y!
b10 Z!
0[!
b0 b!
b1101 g!
b1000 h!
b1 j!
b100 l!
b1010 m!
1n!
1.
b1010 _
b100 Z
b1 D
b1000 Y
b1101 ^
b0 C
0a
b10 `
b0 =
17
b1 9
b1100 X
b10010 P
b1111 ]
b10010 \
b10 [
b1000 U
b10000 W
b1100 T
b1000001001110100000011010110011 R
b10000 S
b10100 g
b11010 h
b10010 _!
b0 c
b1 p!
0*!
0)!
1(!
b1000001111101111000111000110011 -!
b1 I
b10010 @
b11010 G
b10100 V
b10100 i
b1 d
b1000001111101111000111000110011 Q
b10100 H
b11111111111111111111111111101110 `!
0a!
b10000010011 4!
b1xx00000100 E!
b0 \!
b0 b
b10 ?!
b0 >!
0A!
bx @!
b10000010011 O
0#
b11111111111111111111111111101110 B
bx 9!
0;!
b0 7!
b10 <!
b10 <
b0 8
06
bx >
b0 4!
b10010 `!
b10010 B
b0 O
#90000
0!
#95000
1!
b10100 j
b1000001111101111000111000110011 .!
b10000 /!
b10100 0!
b1100 M!
b10100 N!
b10011 O!
b1101 P!
b0 Q!
b10000 R!
b0 T!
0X!
b10 Y!
b0 Z!
1[!
b10010 b!
b1111 g!
b1100 h!
b1 f!
b0 j!
b1000 l!
b1101 m!
b1101 _
b1000 Z
b0 D
b1 :
b1100 Y
b1111 ^
b10010 C
1a
b0 `
b10 =
07
b0 9
b10000 X
b0 P
b1101 ]
b10011 \
b10100 [
b1100 U
b10100 W
b10000 T
b1000001111101111000111000110011 R
b10100 S
b11000 g
b1100 h
b0 _!
b10010 c
b0 p!
1*!
b100101011111010010110011 -!
b0 I
b0 @
b1100 G
b11000 V
b11000 i
b0 d
b100101011111010010110011 Q
b11000 H
b0 `!
1a!
b1 \!
b1 b
1#
b0 B
#100000
0!
#105000
1!
b11000 j
b100101011111010010110011 .!
b10100 /!
b11000 0!
b10000 M!
b1111 N!
b11111 O!
b11100 P!
b10100 R!
b0 b!
b1101 g!
b10000 h!
b0 f!
b10010 j!
b1100 l!
b1111 m!
b1 o!
b1 ;
b1111 _
b1100 Z
b10010 D
b0 :
b10000 Y
b1101 ^
b0 C
b10100 X
b11100 ]
b11111 \
b1111 [
b10000 U
b11000 W
b10100 T
b100101011111010010110011 R
b11000 S
b11100 g
b10000 h
b0 c
0*!
1)!
b100100000111101010110011 -!
b10000 G
b11100 V
b11100 i
b100100000111101010110011 Q
b11100 H
b1 e
b1 )
#110000
0!
#115000
1!
b11100 j
b100100000111101010110011 .!
b11000 /!
b11100 0!
b10100 M!
b1011 N!
b1001 O!
b1001 P!
b11000 R!
b111 Z!
0[!
b11100 g!
b10100 h!
b0 j!
b10000 l!
b1101 m!
b0 o!
b0 ;
b1101 _
b10000 Z
b0 D
b10100 Y
b11100 ^
0a
b111 `
b11000 X
b1001 ]
b1001 \
b1011 [
b10100 U
b11100 W
b11000 T
b100100000111101010110011 R
b11100 S
b100000 g
b10100 h
1*!
b10001110110010001110101110010011 -!
b10100 G
b100000 V
b100000 i
b10001110110010001110101110010011 Q
b100000 H
b10 \!
b0 e
b0 )
b10 b
#120000
0!
#125000
1!
b100000 j
b10001110110010001110101110010011 .!
b11100 /!
b100000 0!
b11000 M!
b0 N!
b10101 P!
b11100 R!
b1001 g!
b11000 h!
b10100 l!
b11100 m!
b11100 _
b10100 Z
b11000 Y
b1001 ^
b11100 X
b10101 ]
b0 [
b11000 U
b100000 W
b11100 T
b10001110110010001110101110010011 R
b100000 S
b100100 g
b11000 h
0*!
0)!
0(!
1'!
b1000001100011001000001100110011 -!
b11000 G
b100100 V
b100100 i
b1000001100011001000001100110011 Q
b100100 H
b10010000110 E!
b10 f
b10 *
b11 ?!
1A!
b0 @!
b0 9!
1;!
b11 <!
b11 <
16
b0 >
b11111111111111111111100011101100 4!
b11111111111111111111100011101100 O
#130000
0!
#135000
1!
b100100 j
b1000001100011001000001100110011 .!
b100000 /!
b100100 0!
b11100 M!
b10001 N!
b1100 O!
b10111 P!
b11111111111111111111100011101100 Q!
b100000 R!
1X!
b11 Y!
b110 Z!
b10101 g!
b11100 h!
b11000 l!
b1001 m!
b1001 _
b11000 Z
b11100 Y
b10101 ^
b110 `
b11 =
17
b100000 X
b11111111111111111111100011101100 P
b10111 ]
b1100 \
b10001 [
b11100 U
b100100 W
b100000 T
b1000001100011001000001100110011 R
b100100 S
b101000 g
b11111111111111111111100100001000 h
b11111111111111111111100011101100 _!
1*!
b101010011010100110110011 -!
b11111111111111111111100011101100 @
b11111111111111111111100100001000 G
b101000 V
b101000 i
b101010011010100110110011 Q
b101000 H
b10000011000 4!
b1xx00000100 E!
b11 \!
b0 f
b0 *
b11 b
b10 ?!
0A!
bx @!
b10000011000 O
bx 9!
0;!
b10 <!
b10 <
06
bx >
b0 4!
b11111111111111111111100011101100 `!
0a!
0#
b11111111111111111111100011101100 B
b0 O
#140000
0!
#145000
1!
b101000 j
b101010011010100110110011 .!
b100100 /!
b101000 0!
b100000 M!
b11001 N!
b11000 O!
b110 P!
b0 Q!
b100100 R!
0X!
b10 Y!
b0 Z!
1[!
b11111111111111111111100011101100 b!
b10111 g!
b100000 h!
b11100 l!
b10101 m!
b10101 _
b11100 Z
b100000 Y
b10111 ^
b11111111111111111111100011101100 C
1a
b0 `
b10 =
07
b100100 X
b0 P
b110 ]
b11000 \
b11001 [
b100000 U
b101000 W
b100100 T
b101010011010100110110011 R
b101000 S
b101100 g
b100000 h
b0 _!
b11111111111111111111100011101100 c
b1 2!
0*!
1)!
b1001110000110101110110011 -!
b1 K
b0 @
b100000 G
b101100 V
b101100 i
b1001110000110101110110011 Q
b101100 H
b0 `!
1a!
b1 \!
b1 b
1#
b0 B
#150000
0!
#155000
1!
b101100 j
b1001110000110101110110011 .!
b101000 /!
b101100 0!
b1 L!
b100100 M!
b10011 N!
b1010 O!
b10011 P!
b101000 R!
b10 Z!
0[!
b0 b!
b110 g!
b100100 h!
b11111111111111111111100011101100 j!
b100000 l!
b10111 m!
b10111 _
b100000 Z
b11111111111111111111100011101100 D
b100100 Y
b110 ^
b0 C
0a
b10 `
b101000 X
b10011 ]
b1010 \
b10011 [
b100100 U
b1 M
b101100 W
b101000 T
b1001110000110101110110011 R
b101100 S
b110000 g
b1 ^!
b100100 h
b0 c
b11111111111111111111100011101100 p!
b0 2!
1*!
b1000000011001000000010110110011 -!
b0 K
b11111111111111111111100011101100 I
b100100 G
b1 A
b110000 V
b1 _!
b110000 i
b11111111111111111111100011101100 d
b1000000011001000000010110110011 Q
b110000 H
b1 @
b11111111111111111111111111111111 `!
0a!
b100 \!
b100 b
0#
b11111111111111111111111111111111 B
b1 `!
b1 B
#160000
0!
#165000
1!
b110000 j
b1000000011001000000010110110011 .!
b101100 /!
b110000 0!
b0 L!
b101000 M!
b10000 N!
b10011 O!
b10111 P!
b101100 R!
b110 Z!
b1 b!
b1 c!
b10011 g!
b101000 h!
b0 j!
b100100 l!
b110 m!
b110 _
b100100 Z
b0 D
b101000 Y
b10011 ^
b1 N
b1 C
b110 `
b101100 X
b10111 ]
b10011 \
b10000 [
b101000 U
b0 M
b110000 W
b101100 T
b1000000011001000000010110110011 R
b110000 S
b110100 g
b0 ^!
b101000 h
b1 c
b0 p!
b11111111111111111111100011101100 2!
0*!
0)!
1(!
b1000001010010011000111110110011 -!
b11111111111111111111100011101100 K
b0 I
b101000 G
b0 A
b110100 V
b0 _!
b110100 i
b0 d
b0 2!
b1000001010010011000111110110011 Q
b0 K
b110100 H
b0 @
b0 `!
1a!
b11 \!
b10 f
b10 *
b11 b
1#
b0 B
b1 ^!
b1 A
b1 _!
b1 @
b1 `!
0a!
0#
b1 B
#170000
0!
#175000
1!
b110100 j
b1000001010010011000111110110011 .!
b110000 /!
b110100 0!
b101100 M!
b1000 N!
b110 O!
b1011 P!
b110000 R!
b0 Z!
1[!
b0 c!
b10111 g!
b101100 h!
b1 j!
b101000 l!
b10011 m!
b10011 _
b101000 Z
b1 D
b101100 Y
b10111 ^
b0 N
1a
b0 `
b110000 X
b1011 ]
b110 \
b1000 [
b101100 U
b110100 W
b110000 T
b1000001010010011000111110110011 R
b110100 S
b111000 g
b101100 h
b1 p!
1*!
b11101010111000000011 -!
b1 I
b101100 G
b111000 V
b111000 i
b1 d
b1 1!
b11101010111000000011 Q
b1 J
b111000 H
b1 \!
b0 f
b0 *
b1 b
b0 ^!
b0 A
b0 _!
b0 @
b0 `!
1a!
1#
b0 B
#180000
0!
#185000
1!
b111000 j
b11101010111000000011 .!
b110100 /!
b111000 0!
b1 K!
b110000 M!
b10011 N!
b10100 O!
b11111 P!
b110100 R!
b0 b!
b1011 g!
b110000 h!
b101100 l!
b10111 m!
b10111 _
b101100 Z
b110000 Y
b1011 ^
b0 C
b110100 X
b11111 ]
b10100 \
b10011 [
b110000 U
b1 L
b111000 W
b110100 T
b11101010111000000011 R
b111000 S
b111100 g
b1 ]!
b110000 h
b0 c
b0 1!
0*!
1)!
b1000001101110000000001000110011 -!
b0 J
b110000 G
b1 ?
b111100 V
b111100 i
b1000001101110000000001000110011 Q
b111100 H
b1 `!
0a!
b10010010000 E!
b0 ?!
b1 >!
1A!
b0 @!
0#
b1 B
b0 9!
1;!
b1 7!
b0 <!
b0 <
b1 8
16
b0 >
#190000
0!
#195000
1!
b111100 j
b1000001101110000000001000110011 .!
b111000 /!
b111100 0!
b0 K!
b110100 M!
b11101 N!
b0 O!
b11100 P!
b111000 R!
b1 T!
1X!
b0 Y!
b10 Z!
0[!
b1 b!
b11111 g!
b110100 h!
b0 j!
b110000 l!
b1011 m!
b1011 _
b110000 Z
b0 D
b110100 Y
b11111 ^
b1 C
0a
b10 `
b0 =
17
b1 9
b111000 X
b11100 ]
b0 \
b11101 [
b110100 U
b0 L
b111100 W
b111000 T
b1000001101110000000001000110011 R
b111100 S
b1000000 g
b0 ]!
b110100 h
b1 c
b0 p!
1*!
b101001111000011010110011 -!
b0 I
b110100 G
b0 ?
b1000000 V
b1000000 i
b0 d
b101001111000011010110011 Q
b1000000 H
b0 `!
1a!
b10000011011 4!
b1xx00000100 E!
b0 \!
b0 b
b10 ?!
b0 >!
0A!
bx @!
b10000011011 O
1#
b0 B
bx 9!
0;!
b0 7!
b10 <!
b10 <
b0 8
06
bx >
b0 4!
b0 O
#200000
0!
#205000
1!
b1000000 j
b101001111000011010110011 .!
b111100 /!
b1000000 0!
b111000 M!
b10000 N!
b11011 O!
b100 P!
b111100 R!
b0 T!
0X!
b10 Y!
b0 Z!
1[!
b0 b!
b11100 g!
b111000 h!
b1 f!
b1 j!
b110100 l!
b11111 m!
b11111 _
b110100 Z
b1 D
b1 :
b111000 Y
b11100 ^
b0 C
1a
b0 `
b10 =
07
b0 9
b111100 X
b100 ]
b11011 \
b10000 [
b111000 U
b1000000 W
b111100 T
b101001111000011010110011 R
b1000000 S
b1000100 g
b111000 h
b0 c
b1 p!
b1 2!
0*!
0)!
0(!
0'!
1&!
b1000001111011000000101000110011 -!
b1 K
b1 I
b111000 G
b1000100 V
b1000100 i
b1 d
b1000001111011000000101000110011 Q
b1000100 H
b1 \!
b1 b
#210000
0!
#215000
1!
b1000100 j
b1000001111011000000101000110011 .!
b1000000 /!
b1000100 0!
b1 L!
b111100 M!
b1111 N!
b1010 O!
b1101 P!
b1000000 R!
0[!
b100 g!
b111100 h!
b0 f!
b0 j!
b111000 l!
b11100 m!
b1 o!
b1 ;
b11100 _
b111000 Z
b0 D
b0 :
b111100 Y
b100 ^
0a
b1000000 X
b1101 ]
b1010 \
b1111 [
b111100 U
b1 M
b1000100 W
b1000000 T
b1000001111011000000101000110011 R
b1000100 S
b1001000 g
b1 ^!
b111100 h
b0 2!
b0 p!
1*!
b10100000110001111000001100010011 -!
b0 I
b0 K
b111100 G
b1 A
b1001000 V
b1 _!
b1001000 i
b0 d
b10100000110001111000001100010011 Q
b1001000 H
b1 @
b11111111111111111111111111111111 `!
0a!
b0 \!
b0 b
0#
b11111111111111111111111111111111 B
b1 `!
b1 B
#220000
0!
#225000
1!
b1001000 j
b10100000110001111000001100010011 .!
b1000100 /!
b1001000 0!
b0 L!
b1000000 M!
b11000 N!
b11110 O!
b10100 P!
b1000100 R!
1[!
b1 b!
b1 c!
b1101 g!
b1000000 h!
b111100 l!
b100 m!
b0 o!
b0 ;
b100 _
b111100 Z
b1000000 Y
b1101 ^
b1 N
b1 C
1a
b1000100 X
b10100 ]
b11110 \
b11000 [
b1000000 U
b0 M
b1001000 W
b1000100 T
b10100000110001111000001100010011 R
b1001000 S
b1001100 g
b0 ^!
b1000000 h
b1 c
0*!
1)!
b11101010111010011010000110010011 -!
b1000000 G
b0 A
b1001100 V
b0 _!
b1001100 i
b11101010111010011010000110010011 Q
b1001100 H
b0 @
b0 `!
1a!
b10010000110 E!
b1 \!
b1 b
b11 ?!
1A!
b0 @!
1#
b0 B
b0 9!
1;!
b11 <!
b11 <
16
b0 >
b11111111111111111111101000001100 4!
b11111111111111111111101000001100 O
#230000
0!
#235000
1!
b1001100 j
b11101010111010011010000110010011 .!
b1001000 /!
b1001100 0!
b1000100 M!
b1111 N!
b1100 O!
b110 P!
b11111111111111111111101000001100 Q!
b1001000 R!
1X!
b11 Y!
0[!
b0 b!
b0 c!
b10100 g!
b1000100 h!
b1 j!
b1000000 l!
b1101 m!
b1101 _
b1000000 Z
b1 D
b1000100 Y
b10100 ^
b0 N
b0 C
0a
b11 =
17
b1001000 X
b11111111111111111111101000001100 P
b110 ]
b1100 \
b1111 [
b1000100 U
b1001100 W
b1001000 T
b11101010111010011010000110010011 R
b1001100 S
b1010000 g
b11111111111111111111101001010000 h
b11111111111111111111101000001100 _!
b0 c
b1 p!
b1 1!
1*!
b10000110100101110111110100010011 -!
b1 J
b1 I
b11111111111111111111101000001100 @
b11111111111111111111101001010000 G
b1010000 V
b1010000 i
b1 d
b10000110100101110111110100010011 Q
b1010000 H
b10111110100 `!
0a!
b11111111111111111111111010101110 4!
b0 \!
b0 b
b11111111111111111111111010101110 O
0#
b10111110100 B
b11111111111111111111101000001100 `!
b11111111111111111111101000001100 B
#240000
0!
#245000
1!
b1010000 j
b10000110100101110111110100010011 .!
b1001100 /!
b1010000 0!
b1 K!
b1001000 M!
b10011 N!
b1110 O!
b11 P!
b11111111111111111111111010101110 Q!
b1001100 R!
b10 Z!
1[!
b11111111111111111111101000001100 b!
b110 g!
b1001000 h!
b0 j!
b1000100 l!
b10100 m!
b10100 _
b1000100 Z
b0 D
b1001000 Y
b110 ^
b11111111111111111111101000001100 C
1a
b10 `
b1001100 X
b11111111111111111111111010101110 P
b11 ]
b1110 \
b10011 [
b1001000 U
b1 L
b1010000 W
b1001100 T
b10000110100101110111110100010011 R
b1010000 S
b1010100 g
b1 ]!
b11111111111111111111111011110110 h
b11111111111111111111111010101110 _!
b11111111111111111111101000001100 c
b0 p!
b0 1!
0*!
0)!
1(!
b110110000110101010011110010011 -!
b0 J
b0 I
b11111111111111111111111010101110 @
b11111111111111111111111011110110 G
b1 ?
b1010100 V
b1010100 i
b0 d
b110110000110101010011110010011 Q
b1010100 H
b11111111111111111111111010101111 `!
b11111111111111111111100001101001 4!
b100 \!
b100 b
b11111111111111111111100001101001 O
b11111111111111111111111010101111 B
b0 `!
1a!
1#
b0 B
#250000
0!
#255000
1!
b1010100 j
b110110000110101010011110010011 .!
b1010000 /!
b1010100 0!
b0 K!
b1001100 M!
b1110 N!
b1001 O!
b11010 P!
b11111111111111111111100001101001 Q!
b1010000 R!
b111 Z!
0[!
b0 b!
b11 g!
b1001100 h!
b11111111111111111111101000001100 j!
b1001000 l!
b110 m!
b110 _
b1001000 Z
b11111111111111111111101000001100 D
b1001100 Y
b11 ^
b0 C
0a
b111 `
b1010000 X
b11111111111111111111100001101001 P
b11010 ]
b1001 \
b1110 [
b1001100 U
b0 L
b1010100 W
b1010000 T
b110110000110101010011110010011 R
b1010100 S
b1011000 g
b0 ]!
b11111111111111111111100010110101 h
b11111111111111111111100001101001 _!
b0 c
b11111111111111111111101000001100 p!
1*!
b11100011010011000110011 -!
b11111111111111111111101000001100 I
b11111111111111111111100001101001 @
b11111111111111111111100010110101 G
b0 ?
b1011000 V
b1011000 i
b11111111111111111111101000001100 d
b11100011010011000110011 Q
b1011000 H
b1101100001 4!
b10 \!
b10 b
b1101100001 O
#260000
0!
